^C:\USERS\ADRII\DESKTOP\LAB10\LAB10\LAB10.CPP
/c /IX64\DEBUG\UIC /IX64\DEBUG\MOC /IC:\QT\5.14.2\MSVC2017_64\INCLUDE /IC:\QT\5.14.2\MSVC2017_64\INCLUDE\QTWIDGETS /IC:\QT\5.14.2\MSVC2017_64\INCLUDE\QTGUI /IC:\QT\5.14.2\MSVC2017_64\INCLUDE\QTANGLE /IC:\QT\5.14.2\MSVC2017_64\INCLUDE\QTCORE /I/INCLUDE /I"C:\QT\5.14.2\MSVC2017_64\MKSPECS\WIN32-MSVC" /IX64\DEBUG\MOC /IX64\DEBUG\UIC /Zi /nologo /W1 /WX- /diagnostics:column /Od /D UNICODE /D _UNICODE /D WIN32 /D _ENABLE_EXTENDED_ALIGNED_STORAGE /D WIN64 /D QT_WIDGETS_LIB /D QT_GUI_LIB /D QT_CORE_LIB /Gm- /EHsc /MDd /GS /fp:precise /Zc:wchar_t /Zc:forScope /Zc:inline /Fo"X64\DEBUG\\" /Fd"X64\DEBUG\VC142.PDB" /Gd /TP /FC C:\USERS\ADRII\DESKTOP\LAB10\LAB10\LAB10.CPP
^C:\USERS\ADRII\DESKTOP\LAB10\LAB10\VALIDATOR.CPP
/c /IX64\DEBUG\UIC /IX64\DEBUG\MOC /IC:\QT\5.14.2\MSVC2017_64\INCLUDE /IC:\QT\5.14.2\MSVC2017_64\INCLUDE\QTWIDGETS /IC:\QT\5.14.2\MSVC2017_64\INCLUDE\QTGUI /IC:\QT\5.14.2\MSVC2017_64\INCLUDE\QTANGLE /IC:\QT\5.14.2\MSVC2017_64\INCLUDE\QTCORE /I/INCLUDE /I"C:\QT\5.14.2\MSVC2017_64\MKSPECS\WIN32-MSVC" /IX64\DEBUG\MOC /IX64\DEBUG\UIC /Zi /nologo /W1 /WX- /diagnostics:column /Od /D UNICODE /D _UNICODE /D WIN32 /D _ENABLE_EXTENDED_ALIGNED_STORAGE /D WIN64 /D QT_WIDGETS_LIB /D QT_GUI_LIB /D QT_CORE_LIB /Gm- /EHsc /MDd /GS /fp:precise /Zc:wchar_t /Zc:forScope /Zc:inline /Fo"X64\DEBUG\\" /Fd"X64\DEBUG\VC142.PDB" /Gd /TP /FC C:\USERS\ADRII\DESKTOP\LAB10\LAB10\VALIDATOR.CPP
^C:\USERS\ADRII\DESKTOP\LAB10\LAB10\X64\DEBUG\RCC\QRC_LAB10.CPP
/c /IX64\DEBUG\UIC /IX64\DEBUG\MOC /IC:\USERS\ADRII\DESKTOP\LAB10\LAB10\ /IC:\QT\5.14.2\MSVC2017_64\INCLUDE /IC:\QT\5.14.2\MSVC2017_64\INCLUDE\QTWIDGETS /IC:\QT\5.14.2\MSVC2017_64\INCLUDE\QTGUI /IC:\QT\5.14.2\MSVC2017_64\INCLUDE\QTANGLE /IC:\QT\5.14.2\MSVC2017_64\INCLUDE\QTCORE /I/INCLUDE /I"C:\QT\5.14.2\MSVC2017_64\MKSPECS\WIN32-MSVC" /IX64\DEBUG\MOC /IX64\DEBUG\UIC /Zi /nologo /W1 /WX- /diagnostics:column /Od /D UNICODE /D _UNICODE /D WIN32 /D _ENABLE_EXTENDED_ALIGNED_STORAGE /D WIN64 /D QT_WIDGETS_LIB /D QT_GUI_LIB /D QT_CORE_LIB /Gm- /EHsc /MDd /GS /fp:precise /Zc:wchar_t /Zc:forScope /Zc:inline /Fo"X64\DEBUG\\" /Fd"X64\DEBUG\VC142.PDB" /Gd /TP /FC C:\USERS\ADRII\DESKTOP\LAB10\LAB10\X64\DEBUG\RCC\QRC_LAB10.CPP
^C:\USERS\ADRII\DESKTOP\LAB10\LAB10\X64\DEBUG\MOC\MOC_LAB10.CPP
/c /IX64\DEBUG\UIC /IX64\DEBUG\MOC /IC:\USERS\ADRII\DESKTOP\LAB10\LAB10\ /IC:\QT\5.14.2\MSVC2017_64\INCLUDE /IC:\QT\5.14.2\MSVC2017_64\INCLUDE\QTWIDGETS /IC:\QT\5.14.2\MSVC2017_64\INCLUDE\QTGUI /IC:\QT\5.14.2\MSVC2017_64\INCLUDE\QTANGLE /IC:\QT\5.14.2\MSVC2017_64\INCLUDE\QTCORE /I/INCLUDE /I"C:\QT\5.14.2\MSVC2017_64\MKSPECS\WIN32-MSVC" /IX64\DEBUG\MOC /IX64\DEBUG\UIC /Zi /nologo /W1 /WX- /diagnostics:column /Od /D UNICODE /D _UNICODE /D WIN32 /D _ENABLE_EXTENDED_ALIGNED_STORAGE /D WIN64 /D QT_WIDGETS_LIB /D QT_GUI_LIB /D QT_CORE_LIB /Gm- /EHsc /MDd /GS /fp:precise /Zc:wchar_t /Zc:forScope /Zc:inline /Fo"X64\DEBUG\\" /Fd"X64\DEBUG\VC142.PDB" /Gd /TP /FC C:\USERS\ADRII\DESKTOP\LAB10\LAB10\X64\DEBUG\MOC\MOC_LAB10.CPP
^C:\USERS\ADRII\DESKTOP\LAB10\LAB10\REPO.CPP
/c /IX64\DEBUG\UIC /IX64\DEBUG\MOC /IC:\QT\5.14.2\MSVC2017_64\INCLUDE /IC:\QT\5.14.2\MSVC2017_64\INCLUDE\QTWIDGETS /IC:\QT\5.14.2\MSVC2017_64\INCLUDE\QTGUI /IC:\QT\5.14.2\MSVC2017_64\INCLUDE\QTANGLE /IC:\QT\5.14.2\MSVC2017_64\INCLUDE\QTCORE /I/INCLUDE /I"C:\QT\5.14.2\MSVC2017_64\MKSPECS\WIN32-MSVC" /IX64\DEBUG\MOC /IX64\DEBUG\UIC /Zi /nologo /W1 /WX- /diagnostics:column /Od /D UNICODE /D _UNICODE /D WIN32 /D _ENABLE_EXTENDED_ALIGNED_STORAGE /D WIN64 /D QT_WIDGETS_LIB /D QT_GUI_LIB /D QT_CORE_LIB /Gm- /EHsc /MDd /GS /fp:precise /Zc:wchar_t /Zc:forScope /Zc:inline /Fo"X64\DEBUG\\" /Fd"X64\DEBUG\VC142.PDB" /Gd /TP /FC C:\USERS\ADRII\DESKTOP\LAB10\LAB10\REPO.CPP
^C:\USERS\ADRII\DESKTOP\LAB10\LAB10\LISTAACTUALA.CPP
/c /IX64\DEBUG\UIC /IX64\DEBUG\MOC /IC:\QT\5.14.2\MSVC2017_64\INCLUDE /IC:\QT\5.14.2\MSVC2017_64\INCLUDE\QTWIDGETS /IC:\QT\5.14.2\MSVC2017_64\INCLUDE\QTGUI /IC:\QT\5.14.2\MSVC2017_64\INCLUDE\QTANGLE /IC:\QT\5.14.2\MSVC2017_64\INCLUDE\QTCORE /I/INCLUDE /I"C:\QT\5.14.2\MSVC2017_64\MKSPECS\WIN32-MSVC" /IX64\DEBUG\MOC /IX64\DEBUG\UIC /Zi /nologo /W1 /WX- /diagnostics:column /Od /D UNICODE /D _UNICODE /D WIN32 /D _ENABLE_EXTENDED_ALIGNED_STORAGE /D WIN64 /D QT_WIDGETS_LIB /D QT_GUI_LIB /D QT_CORE_LIB /Gm- /EHsc /MDd /GS /fp:precise /Zc:wchar_t /Zc:forScope /Zc:inline /Fo"X64\DEBUG\\" /Fd"X64\DEBUG\VC142.PDB" /Gd /TP /FC C:\USERS\ADRII\DESKTOP\LAB10\LAB10\LISTAACTUALA.CPP
^C:\USERS\ADRII\DESKTOP\LAB10\LAB10\SERVICE.CPP
/c /IX64\DEBUG\UIC /IX64\DEBUG\MOC /IC:\QT\5.14.2\MSVC2017_64\INCLUDE /IC:\QT\5.14.2\MSVC2017_64\INCLUDE\QTWIDGETS /IC:\QT\5.14.2\MSVC2017_64\INCLUDE\QTGUI /IC:\QT\5.14.2\MSVC2017_64\INCLUDE\QTANGLE /IC:\QT\5.14.2\MSVC2017_64\INCLUDE\QTCORE /I/INCLUDE /I"C:\QT\5.14.2\MSVC2017_64\MKSPECS\WIN32-MSVC" /IX64\DEBUG\MOC /IX64\DEBUG\UIC /Zi /nologo /W1 /WX- /diagnostics:column /Od /D UNICODE /D _UNICODE /D WIN32 /D _ENABLE_EXTENDED_ALIGNED_STORAGE /D WIN64 /D QT_WIDGETS_LIB /D QT_GUI_LIB /D QT_CORE_LIB /Gm- /EHsc /MDd /GS /fp:precise /Zc:wchar_t /Zc:forScope /Zc:inline /Fo"X64\DEBUG\\" /Fd"X64\DEBUG\VC142.PDB" /Gd /TP /FC C:\USERS\ADRII\DESKTOP\LAB10\LAB10\SERVICE.CPP
^C:\USERS\ADRII\DESKTOP\LAB10\LAB10\COSGUI.CPP
/c /IX64\DEBUG\UIC /IX64\DEBUG\MOC /IC:\QT\5.14.2\MSVC2017_64\INCLUDE /IC:\QT\5.14.2\MSVC2017_64\INCLUDE\QTWIDGETS /IC:\QT\5.14.2\MSVC2017_64\INCLUDE\QTGUI /IC:\QT\5.14.2\MSVC2017_64\INCLUDE\QTANGLE /IC:\QT\5.14.2\MSVC2017_64\INCLUDE\QTCORE /I/INCLUDE /I"C:\QT\5.14.2\MSVC2017_64\MKSPECS\WIN32-MSVC" /IX64\DEBUG\MOC /IX64\DEBUG\UIC /Zi /nologo /W1 /WX- /diagnostics:column /Od /D UNICODE /D _UNICODE /D WIN32 /D _ENABLE_EXTENDED_ALIGNED_STORAGE /D WIN64 /D QT_WIDGETS_LIB /D QT_GUI_LIB /D QT_CORE_LIB /Gm- /EHsc /MDd /GS /fp:precise /Zc:wchar_t /Zc:forScope /Zc:inline /Fo"X64\DEBUG\\" /Fd"X64\DEBUG\VC142.PDB" /Gd /TP /FC C:\USERS\ADRII\DESKTOP\LAB10\LAB10\COSGUI.CPP
^C:\USERS\ADRII\DESKTOP\LAB10\LAB10\MAIN.CPP
/c /IX64\DEBUG\UIC /IX64\DEBUG\MOC /IC:\QT\5.14.2\MSVC2017_64\INCLUDE /IC:\QT\5.14.2\MSVC2017_64\INCLUDE\QTWIDGETS /IC:\QT\5.14.2\MSVC2017_64\INCLUDE\QTGUI /IC:\QT\5.14.2\MSVC2017_64\INCLUDE\QTANGLE /IC:\QT\5.14.2\MSVC2017_64\INCLUDE\QTCORE /I/INCLUDE /I"C:\QT\5.14.2\MSVC2017_64\MKSPECS\WIN32-MSVC" /IX64\DEBUG\MOC /IX64\DEBUG\UIC /Zi /nologo /W1 /WX- /diagnostics:column /Od /D UNICODE /D _UNICODE /D WIN32 /D _ENABLE_EXTENDED_ALIGNED_STORAGE /D WIN64 /D QT_WIDGETS_LIB /D QT_GUI_LIB /D QT_CORE_LIB /Gm- /EHsc /MDd /GS /fp:precise /Zc:wchar_t /Zc:forScope /Zc:inline /Fo"X64\DEBUG\\" /Fd"X64\DEBUG\VC142.PDB" /Gd /TP /FC C:\USERS\ADRII\DESKTOP\LAB10\LAB10\MAIN.CPP
^C:\USERS\ADRII\DESKTOP\LAB10\LAB10\GUI.CPP
/c /IX64\DEBUG\UIC /IX64\DEBUG\MOC /IC:\QT\5.14.2\MSVC2017_64\INCLUDE /IC:\QT\5.14.2\MSVC2017_64\INCLUDE\QTWIDGETS /IC:\QT\5.14.2\MSVC2017_64\INCLUDE\QTGUI /IC:\QT\5.14.2\MSVC2017_64\INCLUDE\QTANGLE /IC:\QT\5.14.2\MSVC2017_64\INCLUDE\QTCORE /I/INCLUDE /I"C:\QT\5.14.2\MSVC2017_64\MKSPECS\WIN32-MSVC" /IX64\DEBUG\MOC /IX64\DEBUG\UIC /Zi /nologo /W1 /WX- /diagnostics:column /Od /D UNICODE /D _UNICODE /D WIN32 /D _ENABLE_EXTENDED_ALIGNED_STORAGE /D WIN64 /D QT_WIDGETS_LIB /D QT_GUI_LIB /D QT_CORE_LIB /Gm- /EHsc /MDd /GS /fp:precise /Zc:wchar_t /Zc:forScope /Zc:inline /Fo"X64\DEBUG\\" /Fd"X64\DEBUG\VC142.PDB" /Gd /TP /FC C:\USERS\ADRII\DESKTOP\LAB10\LAB10\GUI.CPP
^C:\USERS\ADRII\DESKTOP\FACULTA\OOP\LAB10\LAB10\LAB10.CPP
/c /IX64\DEBUG\UIC /IX64\DEBUG\MOC /IC:\QT\5.14.2\MSVC2017_64\INCLUDE /IC:\QT\5.14.2\MSVC2017_64\INCLUDE\QTWIDGETS /IC:\QT\5.14.2\MSVC2017_64\INCLUDE\QTGUI /IC:\QT\5.14.2\MSVC2017_64\INCLUDE\QTANGLE /IC:\QT\5.14.2\MSVC2017_64\INCLUDE\QTCORE /I/INCLUDE /I"C:\QT\5.14.2\MSVC2017_64\MKSPECS\WIN32-MSVC" /IX64\DEBUG\MOC /IX64\DEBUG\UIC /Zi /nologo /W1 /WX- /diagnostics:column /Od /D UNICODE /D _UNICODE /D WIN32 /D _ENABLE_EXTENDED_ALIGNED_STORAGE /D WIN64 /D QT_WIDGETS_LIB /D QT_GUI_LIB /D QT_CORE_LIB /Gm- /EHsc /MDd /GS /fp:precise /Zc:wchar_t /Zc:forScope /Zc:inline /Fo"X64\DEBUG\\" /Fd"X64\DEBUG\VC142.PDB" /Gd /TP /FC C:\USERS\ADRII\DESKTOP\FACULTA\OOP\LAB10\LAB10\LAB10.CPP
^C:\USERS\ADRII\DESKTOP\FACULTA\OOP\LAB10\LAB10\X64\DEBUG\RCC\QRC_LAB10.CPP
/c /IX64\DEBUG\UIC /IX64\DEBUG\MOC /IC:\USERS\ADRII\DESKTOP\FACULTA\OOP\LAB10\LAB10\ /IC:\QT\5.14.2\MSVC2017_64\INCLUDE /IC:\QT\5.14.2\MSVC2017_64\INCLUDE\QTWIDGETS /IC:\QT\5.14.2\MSVC2017_64\INCLUDE\QTGUI /IC:\QT\5.14.2\MSVC2017_64\INCLUDE\QTANGLE /IC:\QT\5.14.2\MSVC2017_64\INCLUDE\QTCORE /I/INCLUDE /I"C:\QT\5.14.2\MSVC2017_64\MKSPECS\WIN32-MSVC" /IX64\DEBUG\MOC /IX64\DEBUG\UIC /Zi /nologo /W1 /WX- /diagnostics:column /Od /D UNICODE /D _UNICODE /D WIN32 /D _ENABLE_EXTENDED_ALIGNED_STORAGE /D WIN64 /D QT_WIDGETS_LIB /D QT_GUI_LIB /D QT_CORE_LIB /Gm- /EHsc /MDd /GS /fp:precise /Zc:wchar_t /Zc:forScope /Zc:inline /Fo"X64\DEBUG\\" /Fd"X64\DEBUG\VC142.PDB" /Gd /TP /FC C:\USERS\ADRII\DESKTOP\FACULTA\OOP\LAB10\LAB10\X64\DEBUG\RCC\QRC_LAB10.CPP
^C:\USERS\ADRII\DESKTOP\FACULTA\OOP\LAB10\LAB10\X64\DEBUG\MOC\MOC_LAB10.CPP
/c /IX64\DEBUG\UIC /IX64\DEBUG\MOC /IC:\USERS\ADRII\DESKTOP\FACULTA\OOP\LAB10\LAB10\ /IC:\QT\5.14.2\MSVC2017_64\INCLUDE /IC:\QT\5.14.2\MSVC2017_64\INCLUDE\QTWIDGETS /IC:\QT\5.14.2\MSVC2017_64\INCLUDE\QTGUI /IC:\QT\5.14.2\MSVC2017_64\INCLUDE\QTANGLE /IC:\QT\5.14.2\MSVC2017_64\INCLUDE\QTCORE /I/INCLUDE /I"C:\QT\5.14.2\MSVC2017_64\MKSPECS\WIN32-MSVC" /IX64\DEBUG\MOC /IX64\DEBUG\UIC /Zi /nologo /W1 /WX- /diagnostics:column /Od /D UNICODE /D _UNICODE /D WIN32 /D _ENABLE_EXTENDED_ALIGNED_STORAGE /D WIN64 /D QT_WIDGETS_LIB /D QT_GUI_LIB /D QT_CORE_LIB /Gm- /EHsc /MDd /GS /fp:precise /Zc:wchar_t /Zc:forScope /Zc:inline /Fo"X64\DEBUG\\" /Fd"X64\DEBUG\VC142.PDB" /Gd /TP /FC C:\USERS\ADRII\DESKTOP\FACULTA\OOP\LAB10\LAB10\X64\DEBUG\MOC\MOC_LAB10.CPP
^C:\USERS\ADRII\DESKTOP\FACULTA\OOP\LAB10\LAB10\REPO.CPP
/c /IX64\DEBUG\UIC /IX64\DEBUG\MOC /IC:\QT\5.14.2\MSVC2017_64\INCLUDE /IC:\QT\5.14.2\MSVC2017_64\INCLUDE\QTWIDGETS /IC:\QT\5.14.2\MSVC2017_64\INCLUDE\QTGUI /IC:\QT\5.14.2\MSVC2017_64\INCLUDE\QTANGLE /IC:\QT\5.14.2\MSVC2017_64\INCLUDE\QTCORE /I/INCLUDE /I"C:\QT\5.14.2\MSVC2017_64\MKSPECS\WIN32-MSVC" /IX64\DEBUG\MOC /IX64\DEBUG\UIC /Zi /nologo /W1 /WX- /diagnostics:column /Od /D UNICODE /D _UNICODE /D WIN32 /D _ENABLE_EXTENDED_ALIGNED_STORAGE /D WIN64 /D QT_WIDGETS_LIB /D QT_GUI_LIB /D QT_CORE_LIB /Gm- /EHsc /MDd /GS /fp:precise /Zc:wchar_t /Zc:forScope /Zc:inline /Fo"X64\DEBUG\\" /Fd"X64\DEBUG\VC142.PDB" /Gd /TP /FC C:\USERS\ADRII\DESKTOP\FACULTA\OOP\LAB10\LAB10\REPO.CPP
^C:\USERS\ADRII\DESKTOP\FACULTA\OOP\LAB10\LAB10\VALIDATOR.CPP
/c /IX64\DEBUG\UIC /IX64\DEBUG\MOC /IC:\QT\5.14.2\MSVC2017_64\INCLUDE /IC:\QT\5.14.2\MSVC2017_64\INCLUDE\QTWIDGETS /IC:\QT\5.14.2\MSVC2017_64\INCLUDE\QTGUI /IC:\QT\5.14.2\MSVC2017_64\INCLUDE\QTANGLE /IC:\QT\5.14.2\MSVC2017_64\INCLUDE\QTCORE /I/INCLUDE /I"C:\QT\5.14.2\MSVC2017_64\MKSPECS\WIN32-MSVC" /IX64\DEBUG\MOC /IX64\DEBUG\UIC /Zi /nologo /W1 /WX- /diagnostics:column /Od /D UNICODE /D _UNICODE /D WIN32 /D _ENABLE_EXTENDED_ALIGNED_STORAGE /D WIN64 /D QT_WIDGETS_LIB /D QT_GUI_LIB /D QT_CORE_LIB /Gm- /EHsc /MDd /GS /fp:precise /Zc:wchar_t /Zc:forScope /Zc:inline /Fo"X64\DEBUG\\" /Fd"X64\DEBUG\VC142.PDB" /Gd /TP /FC C:\USERS\ADRII\DESKTOP\FACULTA\OOP\LAB10\LAB10\VALIDATOR.CPP
^C:\USERS\ADRII\DESKTOP\FACULTA\OOP\LAB10\LAB10\COSGUI.CPP
/c /IX64\DEBUG\UIC /IX64\DEBUG\MOC /IC:\QT\5.14.2\MSVC2017_64\INCLUDE /IC:\QT\5.14.2\MSVC2017_64\INCLUDE\QTWIDGETS /IC:\QT\5.14.2\MSVC2017_64\INCLUDE\QTGUI /IC:\QT\5.14.2\MSVC2017_64\INCLUDE\QTANGLE /IC:\QT\5.14.2\MSVC2017_64\INCLUDE\QTCORE /I/INCLUDE /I"C:\QT\5.14.2\MSVC2017_64\MKSPECS\WIN32-MSVC" /IX64\DEBUG\MOC /IX64\DEBUG\UIC /Zi /nologo /W1 /WX- /diagnostics:column /Od /D UNICODE /D _UNICODE /D WIN32 /D _ENABLE_EXTENDED_ALIGNED_STORAGE /D WIN64 /D QT_WIDGETS_LIB /D QT_GUI_LIB /D QT_CORE_LIB /Gm- /EHsc /MDd /GS /fp:precise /Zc:wchar_t /Zc:forScope /Zc:inline /Fo"X64\DEBUG\\" /Fd"X64\DEBUG\VC142.PDB" /Gd /TP /FC C:\USERS\ADRII\DESKTOP\FACULTA\OOP\LAB10\LAB10\COSGUI.CPP
^C:\USERS\ADRII\DESKTOP\FACULTA\OOP\LAB10\LAB10\GUI.CPP
/c /IX64\DEBUG\UIC /IX64\DEBUG\MOC /IC:\QT\5.14.2\MSVC2017_64\INCLUDE /IC:\QT\5.14.2\MSVC2017_64\INCLUDE\QTWIDGETS /IC:\QT\5.14.2\MSVC2017_64\INCLUDE\QTGUI /IC:\QT\5.14.2\MSVC2017_64\INCLUDE\QTANGLE /IC:\QT\5.14.2\MSVC2017_64\INCLUDE\QTCORE /I/INCLUDE /I"C:\QT\5.14.2\MSVC2017_64\MKSPECS\WIN32-MSVC" /IX64\DEBUG\MOC /IX64\DEBUG\UIC /Zi /nologo /W1 /WX- /diagnostics:column /Od /D UNICODE /D _UNICODE /D WIN32 /D _ENABLE_EXTENDED_ALIGNED_STORAGE /D WIN64 /D QT_WIDGETS_LIB /D QT_GUI_LIB /D QT_CORE_LIB /Gm- /EHsc /MDd /GS /fp:precise /Zc:wchar_t /Zc:forScope /Zc:inline /Fo"X64\DEBUG\\" /Fd"X64\DEBUG\VC142.PDB" /Gd /TP /FC C:\USERS\ADRII\DESKTOP\FACULTA\OOP\LAB10\LAB10\GUI.CPP
^C:\USERS\ADRII\DESKTOP\FACULTA\OOP\LAB10\LAB10\LISTAACTUALA.CPP
/c /IX64\DEBUG\UIC /IX64\DEBUG\MOC /IC:\QT\5.14.2\MSVC2017_64\INCLUDE /IC:\QT\5.14.2\MSVC2017_64\INCLUDE\QTWIDGETS /IC:\QT\5.14.2\MSVC2017_64\INCLUDE\QTGUI /IC:\QT\5.14.2\MSVC2017_64\INCLUDE\QTANGLE /IC:\QT\5.14.2\MSVC2017_64\INCLUDE\QTCORE /I/INCLUDE /I"C:\QT\5.14.2\MSVC2017_64\MKSPECS\WIN32-MSVC" /IX64\DEBUG\MOC /IX64\DEBUG\UIC /Zi /nologo /W1 /WX- /diagnostics:column /Od /D UNICODE /D _UNICODE /D WIN32 /D _ENABLE_EXTENDED_ALIGNED_STORAGE /D WIN64 /D QT_WIDGETS_LIB /D QT_GUI_LIB /D QT_CORE_LIB /Gm- /EHsc /MDd /GS /fp:precise /Zc:wchar_t /Zc:forScope /Zc:inline /Fo"X64\DEBUG\\" /Fd"X64\DEBUG\VC142.PDB" /Gd /TP /FC C:\USERS\ADRII\DESKTOP\FACULTA\OOP\LAB10\LAB10\LISTAACTUALA.CPP
^C:\USERS\ADRII\DESKTOP\FACULTA\OOP\LAB10\LAB10\MAIN.CPP
/c /IX64\DEBUG\UIC /IX64\DEBUG\MOC /IC:\QT\5.14.2\MSVC2017_64\INCLUDE /IC:\QT\5.14.2\MSVC2017_64\INCLUDE\QTWIDGETS /IC:\QT\5.14.2\MSVC2017_64\INCLUDE\QTGUI /IC:\QT\5.14.2\MSVC2017_64\INCLUDE\QTANGLE /IC:\QT\5.14.2\MSVC2017_64\INCLUDE\QTCORE /I/INCLUDE /I"C:\QT\5.14.2\MSVC2017_64\MKSPECS\WIN32-MSVC" /IX64\DEBUG\MOC /IX64\DEBUG\UIC /Zi /nologo /W1 /WX- /diagnostics:column /Od /D UNICODE /D _UNICODE /D WIN32 /D _ENABLE_EXTENDED_ALIGNED_STORAGE /D WIN64 /D QT_WIDGETS_LIB /D QT_GUI_LIB /D QT_CORE_LIB /Gm- /EHsc /MDd /GS /fp:precise /Zc:wchar_t /Zc:forScope /Zc:inline /Fo"X64\DEBUG\\" /Fd"X64\DEBUG\VC142.PDB" /Gd /TP /FC C:\USERS\ADRII\DESKTOP\FACULTA\OOP\LAB10\LAB10\MAIN.CPP
^C:\USERS\ADRII\DESKTOP\FACULTA\OOP\LAB10\LAB10\SERVICE.CPP
/c /IX64\DEBUG\UIC /IX64\DEBUG\MOC /IC:\QT\5.14.2\MSVC2017_64\INCLUDE /IC:\QT\5.14.2\MSVC2017_64\INCLUDE\QTWIDGETS /IC:\QT\5.14.2\MSVC2017_64\INCLUDE\QTGUI /IC:\QT\5.14.2\MSVC2017_64\INCLUDE\QTANGLE /IC:\QT\5.14.2\MSVC2017_64\INCLUDE\QTCORE /I/INCLUDE /I"C:\QT\5.14.2\MSVC2017_64\MKSPECS\WIN32-MSVC" /IX64\DEBUG\MOC /IX64\DEBUG\UIC /Zi /nologo /W1 /WX- /diagnostics:column /Od /D UNICODE /D _UNICODE /D WIN32 /D _ENABLE_EXTENDED_ALIGNED_STORAGE /D WIN64 /D QT_WIDGETS_LIB /D QT_GUI_LIB /D QT_CORE_LIB /Gm- /EHsc /MDd /GS /fp:precise /Zc:wchar_t /Zc:forScope /Zc:inline /Fo"X64\DEBUG\\" /Fd"X64\DEBUG\VC142.PDB" /Gd /TP /FC C:\USERS\ADRII\DESKTOP\FACULTA\OOP\LAB10\LAB10\SERVICE.CPP
^C:\USERS\ADRII\DESKTOP\STUFF\2020\FACULTA\OOP\LAB10\LAB10\COSGUI.CPP
/c /IX64\DEBUG\UIC /IX64\DEBUG\MOC /IC:\QT\5.14.2\MSVC2017_64\INCLUDE /IC:\QT\5.14.2\MSVC2017_64\INCLUDE\QTWIDGETS /IC:\QT\5.14.2\MSVC2017_64\INCLUDE\QTGUI /IC:\QT\5.14.2\MSVC2017_64\INCLUDE\QTANGLE /IC:\QT\5.14.2\MSVC2017_64\INCLUDE\QTCORE /I/INCLUDE /I"C:\QT\5.14.2\MSVC2017_64\MKSPECS\WIN32-MSVC" /IX64\DEBUG\MOC /IX64\DEBUG\UIC /Zi /nologo /W1 /WX- /diagnostics:column /Od /D UNICODE /D _UNICODE /D WIN32 /D _ENABLE_EXTENDED_ALIGNED_STORAGE /D WIN64 /D QT_WIDGETS_LIB /D QT_GUI_LIB /D QT_CORE_LIB /Gm- /EHsc /MDd /GS /fp:precise /Zc:wchar_t /Zc:forScope /Zc:inline /Fo"X64\DEBUG\\" /Fd"X64\DEBUG\VC142.PDB" /Gd /TP /FC C:\USERS\ADRII\DESKTOP\STUFF\2020\FACULTA\OOP\LAB10\LAB10\COSGUI.CPP
^C:\USERS\ADRII\DESKTOP\STUFF\2020\FACULTA\OOP\LAB10\LAB10\GUI.CPP
/c /IX64\DEBUG\UIC /IX64\DEBUG\MOC /IC:\QT\5.14.2\MSVC2017_64\INCLUDE /IC:\QT\5.14.2\MSVC2017_64\INCLUDE\QTWIDGETS /IC:\QT\5.14.2\MSVC2017_64\INCLUDE\QTGUI /IC:\QT\5.14.2\MSVC2017_64\INCLUDE\QTANGLE /IC:\QT\5.14.2\MSVC2017_64\INCLUDE\QTCORE /I/INCLUDE /I"C:\QT\5.14.2\MSVC2017_64\MKSPECS\WIN32-MSVC" /IX64\DEBUG\MOC /IX64\DEBUG\UIC /Zi /nologo /W1 /WX- /diagnostics:column /Od /D UNICODE /D _UNICODE /D WIN32 /D _ENABLE_EXTENDED_ALIGNED_STORAGE /D WIN64 /D QT_WIDGETS_LIB /D QT_GUI_LIB /D QT_CORE_LIB /Gm- /EHsc /MDd /GS /fp:precise /Zc:wchar_t /Zc:forScope /Zc:inline /Fo"X64\DEBUG\\" /Fd"X64\DEBUG\VC142.PDB" /Gd /TP /FC C:\USERS\ADRII\DESKTOP\STUFF\2020\FACULTA\OOP\LAB10\LAB10\GUI.CPP
^C:\USERS\ADRII\DESKTOP\STUFF\2020\FACULTA\OOP\LAB10\LAB10\LAB10.CPP
/c /IX64\DEBUG\UIC /IX64\DEBUG\MOC /IC:\QT\5.14.2\MSVC2017_64\INCLUDE /IC:\QT\5.14.2\MSVC2017_64\INCLUDE\QTWIDGETS /IC:\QT\5.14.2\MSVC2017_64\INCLUDE\QTGUI /IC:\QT\5.14.2\MSVC2017_64\INCLUDE\QTANGLE /IC:\QT\5.14.2\MSVC2017_64\INCLUDE\QTCORE /I/INCLUDE /I"C:\QT\5.14.2\MSVC2017_64\MKSPECS\WIN32-MSVC" /IX64\DEBUG\MOC /IX64\DEBUG\UIC /Zi /nologo /W1 /WX- /diagnostics:column /Od /D UNICODE /D _UNICODE /D WIN32 /D _ENABLE_EXTENDED_ALIGNED_STORAGE /D WIN64 /D QT_WIDGETS_LIB /D QT_GUI_LIB /D QT_CORE_LIB /Gm- /EHsc /MDd /GS /fp:precise /Zc:wchar_t /Zc:forScope /Zc:inline /Fo"X64\DEBUG\\" /Fd"X64\DEBUG\VC142.PDB" /Gd /TP /FC C:\USERS\ADRII\DESKTOP\STUFF\2020\FACULTA\OOP\LAB10\LAB10\LAB10.CPP
^C:\USERS\ADRII\DESKTOP\STUFF\2020\FACULTA\OOP\LAB10\LAB10\LISTAACTUALA.CPP
/c /IX64\DEBUG\UIC /IX64\DEBUG\MOC /IC:\QT\5.14.2\MSVC2017_64\INCLUDE /IC:\QT\5.14.2\MSVC2017_64\INCLUDE\QTWIDGETS /IC:\QT\5.14.2\MSVC2017_64\INCLUDE\QTGUI /IC:\QT\5.14.2\MSVC2017_64\INCLUDE\QTANGLE /IC:\QT\5.14.2\MSVC2017_64\INCLUDE\QTCORE /I/INCLUDE /I"C:\QT\5.14.2\MSVC2017_64\MKSPECS\WIN32-MSVC" /IX64\DEBUG\MOC /IX64\DEBUG\UIC /Zi /nologo /W1 /WX- /diagnostics:column /Od /D UNICODE /D _UNICODE /D WIN32 /D _ENABLE_EXTENDED_ALIGNED_STORAGE /D WIN64 /D QT_WIDGETS_LIB /D QT_GUI_LIB /D QT_CORE_LIB /Gm- /EHsc /MDd /GS /fp:precise /Zc:wchar_t /Zc:forScope /Zc:inline /Fo"X64\DEBUG\\" /Fd"X64\DEBUG\VC142.PDB" /Gd /TP /FC C:\USERS\ADRII\DESKTOP\STUFF\2020\FACULTA\OOP\LAB10\LAB10\LISTAACTUALA.CPP
^C:\USERS\ADRII\DESKTOP\STUFF\2020\FACULTA\OOP\LAB10\LAB10\MAIN.CPP
/c /IX64\DEBUG\UIC /IX64\DEBUG\MOC /IC:\QT\5.14.2\MSVC2017_64\INCLUDE /IC:\QT\5.14.2\MSVC2017_64\INCLUDE\QTWIDGETS /IC:\QT\5.14.2\MSVC2017_64\INCLUDE\QTGUI /IC:\QT\5.14.2\MSVC2017_64\INCLUDE\QTANGLE /IC:\QT\5.14.2\MSVC2017_64\INCLUDE\QTCORE /I/INCLUDE /I"C:\QT\5.14.2\MSVC2017_64\MKSPECS\WIN32-MSVC" /IX64\DEBUG\MOC /IX64\DEBUG\UIC /Zi /nologo /W1 /WX- /diagnostics:column /Od /D UNICODE /D _UNICODE /D WIN32 /D _ENABLE_EXTENDED_ALIGNED_STORAGE /D WIN64 /D QT_WIDGETS_LIB /D QT_GUI_LIB /D QT_CORE_LIB /Gm- /EHsc /MDd /GS /fp:precise /Zc:wchar_t /Zc:forScope /Zc:inline /Fo"X64\DEBUG\\" /Fd"X64\DEBUG\VC142.PDB" /Gd /TP /FC C:\USERS\ADRII\DESKTOP\STUFF\2020\FACULTA\OOP\LAB10\LAB10\MAIN.CPP
^C:\USERS\ADRII\DESKTOP\STUFF\2020\FACULTA\OOP\LAB10\LAB10\REPO.CPP
/c /IX64\DEBUG\UIC /IX64\DEBUG\MOC /IC:\QT\5.14.2\MSVC2017_64\INCLUDE /IC:\QT\5.14.2\MSVC2017_64\INCLUDE\QTWIDGETS /IC:\QT\5.14.2\MSVC2017_64\INCLUDE\QTGUI /IC:\QT\5.14.2\MSVC2017_64\INCLUDE\QTANGLE /IC:\QT\5.14.2\MSVC2017_64\INCLUDE\QTCORE /I/INCLUDE /I"C:\QT\5.14.2\MSVC2017_64\MKSPECS\WIN32-MSVC" /IX64\DEBUG\MOC /IX64\DEBUG\UIC /Zi /nologo /W1 /WX- /diagnostics:column /Od /D UNICODE /D _UNICODE /D WIN32 /D _ENABLE_EXTENDED_ALIGNED_STORAGE /D WIN64 /D QT_WIDGETS_LIB /D QT_GUI_LIB /D QT_CORE_LIB /Gm- /EHsc /MDd /GS /fp:precise /Zc:wchar_t /Zc:forScope /Zc:inline /Fo"X64\DEBUG\\" /Fd"X64\DEBUG\VC142.PDB" /Gd /TP /FC C:\USERS\ADRII\DESKTOP\STUFF\2020\FACULTA\OOP\LAB10\LAB10\REPO.CPP
^C:\USERS\ADRII\DESKTOP\STUFF\2020\FACULTA\OOP\LAB10\LAB10\SERVICE.CPP
/c /IX64\DEBUG\UIC /IX64\DEBUG\MOC /IC:\QT\5.14.2\MSVC2017_64\INCLUDE /IC:\QT\5.14.2\MSVC2017_64\INCLUDE\QTWIDGETS /IC:\QT\5.14.2\MSVC2017_64\INCLUDE\QTGUI /IC:\QT\5.14.2\MSVC2017_64\INCLUDE\QTANGLE /IC:\QT\5.14.2\MSVC2017_64\INCLUDE\QTCORE /I/INCLUDE /I"C:\QT\5.14.2\MSVC2017_64\MKSPECS\WIN32-MSVC" /IX64\DEBUG\MOC /IX64\DEBUG\UIC /Zi /nologo /W1 /WX- /diagnostics:column /Od /D UNICODE /D _UNICODE /D WIN32 /D _ENABLE_EXTENDED_ALIGNED_STORAGE /D WIN64 /D QT_WIDGETS_LIB /D QT_GUI_LIB /D QT_CORE_LIB /Gm- /EHsc /MDd /GS /fp:precise /Zc:wchar_t /Zc:forScope /Zc:inline /Fo"X64\DEBUG\\" /Fd"X64\DEBUG\VC142.PDB" /Gd /TP /FC C:\USERS\ADRII\DESKTOP\STUFF\2020\FACULTA\OOP\LAB10\LAB10\SERVICE.CPP
^C:\USERS\ADRII\DESKTOP\STUFF\2020\FACULTA\OOP\LAB10\LAB10\VALIDATOR.CPP
/c /IX64\DEBUG\UIC /IX64\DEBUG\MOC /IC:\QT\5.14.2\MSVC2017_64\INCLUDE /IC:\QT\5.14.2\MSVC2017_64\INCLUDE\QTWIDGETS /IC:\QT\5.14.2\MSVC2017_64\INCLUDE\QTGUI /IC:\QT\5.14.2\MSVC2017_64\INCLUDE\QTANGLE /IC:\QT\5.14.2\MSVC2017_64\INCLUDE\QTCORE /I/INCLUDE /I"C:\QT\5.14.2\MSVC2017_64\MKSPECS\WIN32-MSVC" /IX64\DEBUG\MOC /IX64\DEBUG\UIC /Zi /nologo /W1 /WX- /diagnostics:column /Od /D UNICODE /D _UNICODE /D WIN32 /D _ENABLE_EXTENDED_ALIGNED_STORAGE /D WIN64 /D QT_WIDGETS_LIB /D QT_GUI_LIB /D QT_CORE_LIB /Gm- /EHsc /MDd /GS /fp:precise /Zc:wchar_t /Zc:forScope /Zc:inline /Fo"X64\DEBUG\\" /Fd"X64\DEBUG\VC142.PDB" /Gd /TP /FC C:\USERS\ADRII\DESKTOP\STUFF\2020\FACULTA\OOP\LAB10\LAB10\VALIDATOR.CPP
^C:\USERS\ADRII\DESKTOP\STUFF\2020\FACULTA\OOP\LAB10\LAB10\X64\DEBUG\RCC\QRC_LAB10.CPP
/c /IX64\DEBUG\UIC /IX64\DEBUG\MOC /IC:\USERS\ADRII\DESKTOP\STUFF\2020\FACULTA\OOP\LAB10\LAB10\ /IC:\QT\5.14.2\MSVC2017_64\INCLUDE /IC:\QT\5.14.2\MSVC2017_64\INCLUDE\QTWIDGETS /IC:\QT\5.14.2\MSVC2017_64\INCLUDE\QTGUI /IC:\QT\5.14.2\MSVC2017_64\INCLUDE\QTANGLE /IC:\QT\5.14.2\MSVC2017_64\INCLUDE\QTCORE /I/INCLUDE /I"C:\QT\5.14.2\MSVC2017_64\MKSPECS\WIN32-MSVC" /IX64\DEBUG\MOC /IX64\DEBUG\UIC /Zi /nologo /W1 /WX- /diagnostics:column /Od /D UNICODE /D _UNICODE /D WIN32 /D _ENABLE_EXTENDED_ALIGNED_STORAGE /D WIN64 /D QT_WIDGETS_LIB /D QT_GUI_LIB /D QT_CORE_LIB /Gm- /EHsc /MDd /GS /fp:precise /Zc:wchar_t /Zc:forScope /Zc:inline /Fo"X64\DEBUG\\" /Fd"X64\DEBUG\VC142.PDB" /Gd /TP /FC C:\USERS\ADRII\DESKTOP\STUFF\2020\FACULTA\OOP\LAB10\LAB10\X64\DEBUG\RCC\QRC_LAB10.CPP
^C:\USERS\ADRII\DESKTOP\STUFF\2020\FACULTA\OOP\LAB10\LAB10\X64\DEBUG\MOC\MOC_LAB10.CPP
/c /IX64\DEBUG\UIC /IX64\DEBUG\MOC /IC:\USERS\ADRII\DESKTOP\STUFF\2020\FACULTA\OOP\LAB10\LAB10\ /IC:\QT\5.14.2\MSVC2017_64\INCLUDE /IC:\QT\5.14.2\MSVC2017_64\INCLUDE\QTWIDGETS /IC:\QT\5.14.2\MSVC2017_64\INCLUDE\QTGUI /IC:\QT\5.14.2\MSVC2017_64\INCLUDE\QTANGLE /IC:\QT\5.14.2\MSVC2017_64\INCLUDE\QTCORE /I/INCLUDE /I"C:\QT\5.14.2\MSVC2017_64\MKSPECS\WIN32-MSVC" /IX64\DEBUG\MOC /IX64\DEBUG\UIC /Zi /nologo /W1 /WX- /diagnostics:column /Od /D UNICODE /D _UNICODE /D WIN32 /D _ENABLE_EXTENDED_ALIGNED_STORAGE /D WIN64 /D QT_WIDGETS_LIB /D QT_GUI_LIB /D QT_CORE_LIB /Gm- /EHsc /MDd /GS /fp:precise /Zc:wchar_t /Zc:forScope /Zc:inline /Fo"X64\DEBUG\\" /Fd"X64\DEBUG\VC142.PDB" /Gd /TP /FC C:\USERS\ADRII\DESKTOP\STUFF\2020\FACULTA\OOP\LAB10\LAB10\X64\DEBUG\MOC\MOC_LAB10.CPP
