^C:\USERS\ADRII\DESKTOP\FACULTA\OOP\LAB10\LAB10\X64\DEBUG\COSGUI.OBJ|C:\USERS\ADRII\DESKTOP\FACULTA\OOP\LAB10\LAB10\X64\DEBUG\GUI.OBJ|C:\USERS\ADRII\DESKTOP\FACULTA\OOP\LAB10\LAB10\X64\DEBUG\LAB10.OBJ|C:\USERS\ADRII\DESKTOP\FACULTA\OOP\LAB10\LAB10\X64\DEBUG\LISTAACTUALA.OBJ|C:\USERS\ADRII\DESKTOP\FACULTA\OOP\LAB10\LAB10\X64\DEBUG\MAIN.OBJ|C:\USERS\ADRII\DESKTOP\FACULTA\OOP\LAB10\LAB10\X64\DEBUG\MOC_LAB10.OBJ|C:\USERS\ADRII\DESKTOP\FACULTA\OOP\LAB10\LAB10\X64\DEBUG\QRC_LAB10.OBJ|C:\USERS\ADRII\DESKTOP\FACULTA\OOP\LAB10\LAB10\X64\DEBUG\REPO.OBJ|C:\USERS\ADRII\DESKTOP\FACULTA\OOP\LAB10\LAB10\X64\DEBUG\SERVICE.OBJ|C:\USERS\ADRII\DESKTOP\FACULTA\OOP\LAB10\LAB10\X64\DEBUG\VALIDATOR.OBJ
C:\USERS\ADRII\DESKTOP\FACULTA\OOP\LAB10\X64\DEBUG\LAB10.EXE
C:\USERS\ADRII\DESKTOP\FACULTA\OOP\LAB10\X64\DEBUG\LAB10.ILK
C:\USERS\ADRII\DESKTOP\FACULTA\OOP\LAB10\X64\DEBUG\LAB10.PDB
^C:\USERS\ADRII\DESKTOP\STUFF\2020\FACULTA\OOP\LAB10\LAB10\X64\DEBUG\COSGUI.OBJ|C:\USERS\ADRII\DESKTOP\STUFF\2020\FACULTA\OOP\LAB10\LAB10\X64\DEBUG\GUI.OBJ|C:\USERS\ADRII\DESKTOP\STUFF\2020\FACULTA\OOP\LAB10\LAB10\X64\DEBUG\LAB10.OBJ|C:\USERS\ADRII\DESKTOP\STUFF\2020\FACULTA\OOP\LAB10\LAB10\X64\DEBUG\LISTAACTUALA.OBJ|C:\USERS\ADRII\DESKTOP\STUFF\2020\FACULTA\OOP\LAB10\LAB10\X64\DEBUG\MAIN.OBJ|C:\USERS\ADRII\DESKTOP\STUFF\2020\FACULTA\OOP\LAB10\LAB10\X64\DEBUG\MOC_LAB10.OBJ|C:\USERS\ADRII\DESKTOP\STUFF\2020\FACULTA\OOP\LAB10\LAB10\X64\DEBUG\QRC_LAB10.OBJ|C:\USERS\ADRII\DESKTOP\STUFF\2020\FACULTA\OOP\LAB10\LAB10\X64\DEBUG\REPO.OBJ|C:\USERS\ADRII\DESKTOP\STUFF\2020\FACULTA\OOP\LAB10\LAB10\X64\DEBUG\SERVICE.OBJ|C:\USERS\ADRII\DESKTOP\STUFF\2020\FACULTA\OOP\LAB10\LAB10\X64\DEBUG\VALIDATOR.OBJ
C:\USERS\ADRII\DESKTOP\STUFF\2020\FACULTA\OOP\LAB10\X64\DEBUG\LAB10.ILK
C:\USERS\ADRII\DESKTOP\STUFF\2020\FACULTA\OOP\LAB10\X64\DEBUG\LAB10.EXE
C:\USERS\ADRII\DESKTOP\STUFF\2020\FACULTA\OOP\LAB10\X64\DEBUG\LAB10.PDB
